…
# split up genres
games_genres_long <- games_genres %>%
  cSplit(splitCols = "genres", sep = ", ", direction = "long") %>% 
  as.data.frame()

# most frequent genres
games_genres_long %>% 
  count(genres) %>% 
  arrange(desc(n))
```

    ## # A tibble: 69 x 2
    ##    genres               n
    ##    <fct>            <int>
    ##  1 action              86
    ##  2 general             68
    ##  3 action adventure    49
    ##  4 role_playing        34
    ##  5 arcade              30
    ##  6 two_d               29
    ##  7 shooter             26
    ##  8 adventure           24
    ##  9 platformer          21
    ## 10 first_person        18
    ## # ... with 59 more rows
…
